<svg width="20" height="20" viewBox="0 0 20 20" fill="none" xmlns="http://www.w3.org/2000/svg">
<g clip-path="url(#clip0_1468_20152)">
<path d="M8.33458 12.6452L15.9946 4.98438L17.1738 6.16271L8.33458 15.0019L3.03125 9.69854L4.20958 8.52021L8.33458 12.6452Z" fill="white"/>
</g>
<defs>
<clipPath id="clip0_1468_20152">
<rect width="20" height="20" fill="white"/>
</clipPath>
</defs>
</svg>
