<svg width="16" height="16" viewBox="0 0 16 16" fill="none" xmlns="http://www.w3.org/2000/svg">
<path d="M9.66667 6.33333H6.33333V9.66667H9.66667V6.33333ZM11.3333 6.33333V9.66667H13.8333V6.33333H11.3333ZM9.66667 13.8333V11.3333H6.33333V13.8333H9.66667ZM11.3333 13.8333H13.8333V11.3333H11.3333V13.8333ZM9.66667 2.16667H6.33333V4.66667H9.66667V2.16667ZM11.3333 2.16667V4.66667H13.8333V2.16667H11.3333ZM4.66667 6.33333H2.16667V9.66667H4.66667V6.33333ZM4.66667 13.8333V11.3333H2.16667V13.8333H4.66667ZM4.66667 2.16667H2.16667V4.66667H4.66667V2.16667ZM1.33333 0.5H14.6667C14.8877 0.5 15.0996 0.587797 15.2559 0.744078C15.4122 0.900358 15.5 1.11232 15.5 1.33333V14.6667C15.5 14.8877 15.4122 15.0996 15.2559 15.2559C15.0996 15.4122 14.8877 15.5 14.6667 15.5H1.33333C1.11232 15.5 0.900358 15.4122 0.744078 15.2559C0.587797 15.0996 0.5 14.8877 0.5 14.6667V1.33333C0.5 1.11232 0.587797 0.900358 0.744078 0.744078C0.900358 0.587797 1.11232 0.5 1.33333 0.5Z" fill="#5F5E5E"/>
</svg>
