<svg width="12" height="12" viewBox="0 0 12 12" fill="none" xmlns="http://www.w3.org/2000/svg">
<path d="M5.16663 5.16406V0.164062H6.83329V5.16406H11.8333V6.83073H6.83329V11.8307H5.16663V6.83073H0.166626V5.16406H5.16663Z" fill="#1E3039"/>
</svg>
