<svg width="20" height="20" viewBox="0 0 20 20" fill="none" xmlns="http://www.w3.org/2000/svg">
<g clip-path="url(#clip0_1517_4829)">
<path d="M2.5 15.8307H17.5V17.4974H2.5V15.8307ZM10.8333 4.85406V14.1641H9.16667V4.85406L4.1075 9.91406L2.92917 8.73573L10 1.66406L17.0708 8.7349L15.8925 9.91323L10.8333 4.85573V4.85406Z" fill="#1E3039"/>
</g>
<defs>
<clipPath id="clip0_1517_4829">
<rect width="20" height="20" fill="white"/>
</clipPath>
</defs>
</svg>
